^C:\USERS\KIKE\DOCUMENTS\VISUAL STUDIO 2013\PROJECTS\BIOLOGIA\OPENCVCOMPONENT\PCH.CPP
/c /I"C:\Users\Kike\Documents\Visual Studio 2013\Projects\MSOpenTech - opencv\opencv-winrt\binWP8" /I"C:\Users\Kike\Documents\Visual Studio 2013\Projects\Biologia\OpenCVComponent\\" /I"Generated Files\\" /IDebug\ /AI"C:\Program Files (x86)\Windows Phone Kits\8.0\Windows Metadata" /ZI /ZW /ZW:nostdlib /nologo /W3 /WX- /sdl /Od /Oy- /D _CRT_SECURE_NO_WARNINGS /D _SCL_SECURE_NO_WARNINGS /D _WINRT_DLL /D _WINDLL /D _UNICODE /D UNICODE /D _DEBUG /D WINAPI_FAMILY=WINAPI_FAMILY_PHONE_APP /Gm- /EHsc /RTC1 /MDd /GS /fp:precise /Zc:wchar_t /Zc:forScope /Yc"pch.h" /Fp"DEBUG\OPENCVCOMPONENT.PCH" /Fo"DEBUG\\" /Fd"DEBUG\VC110.PDB" /Gd /TP /FU"C:\Program Files (x86)\Microsoft Visual Studio 11.0\VC\WPSDK\WP80\lib\platform.winmd" /FU"C:\Program Files (x86)\Windows Phone Kits\8.0\Windows Metadata\Windows.winmd" /analyze- C:\USERS\KIKE\DOCUMENTS\VISUAL STUDIO 2013\PROJECTS\BIOLOGIA\OPENCVCOMPONENT\PCH.CPP
^C:\USERS\KIKE\DOCUMENTS\VISUAL STUDIO 2013\PROJECTS\BIOLOGIA\OPENCVCOMPONENT\OPENCVCOMPONENT.CPP
/c /I"C:\Users\Kike\Documents\Visual Studio 2013\Projects\MSOpenTech - opencv\opencv-winrt\binWP8" /I"C:\Users\Kike\Documents\Visual Studio 2013\Projects\Biologia\OpenCVComponent\\" /I"Generated Files\\" /IDebug\ /AI"C:\Program Files (x86)\Windows Phone Kits\8.0\Windows Metadata" /ZI /ZW /ZW:nostdlib /nologo /W3 /WX- /sdl /Od /Oy- /D _CRT_SECURE_NO_WARNINGS /D _SCL_SECURE_NO_WARNINGS /D _WINRT_DLL /D _WINDLL /D _UNICODE /D UNICODE /D _DEBUG /D WINAPI_FAMILY=WINAPI_FAMILY_PHONE_APP /Gm- /EHsc /RTC1 /MDd /GS /fp:precise /Zc:wchar_t /Zc:forScope /Yu"pch.h" /Fp"DEBUG\OPENCVCOMPONENT.PCH" /Fo"DEBUG\\" /Fd"DEBUG\VC110.PDB" /Gd /TP /FU"C:\Program Files (x86)\Microsoft Visual Studio 11.0\VC\WPSDK\WP80\lib\platform.winmd" /FU"C:\Program Files (x86)\Windows Phone Kits\8.0\Windows Metadata\Windows.winmd" /analyze- C:\USERS\KIKE\DOCUMENTS\VISUAL STUDIO 2013\PROJECTS\BIOLOGIA\OPENCVCOMPONENT\OPENCVCOMPONENT.CPP
